%YAML 1.1
%TAG !u! tag:unity3d.com,2011:
--- !u!114 &11400000
MonoBehaviour:
  m_ObjectHideFlags: 0
  m_CorrespondingSourceObject: {fileID: 0}
  m_PrefabInstance: {fileID: 0}
  m_PrefabAsset: {fileID: 0}
  m_GameObject: {fileID: 0}
  m_Enabled: 1
  m_EditorHideFlags: 0
  m_Script: {fileID: 11500000, guid: 0184eec6358d50a4d91a3e395a7f31d6, type: 3}
  m_Name: PlayerData
  m_EditorClassIdentifier: 
  paused: 1
  ambienceVol: 0
  musicVol: 0
  sfxVol: 0
  musicMuted: 0
  sfxMuted: 0
  ambienceMuted: 0
  health: 6
